%YAML 1.1
%TAG !u! tag:unity3d.com,2011:
--- !u!65 &5666082546642929815
BoxCollider:
  m_ObjectHideFlags: 0
  m_CorrespondingSourceObject: {fileID: 0}
  m_PrefabInstance: {fileID: 0}
  m_PrefabAsset: {fileID: 0}
  m_GameObject: {fileID: 3149963113817992327}
  m_Material: {fileID: 0}
  m_IsTrigger: 0
  m_Enabled: 1
  serializedVersion: 2
  m_Size: {x: 2.7808323, y: 5.3230395, z: 3.5201986}
  m_Center: {x: 0.00362283, y: 2.6299808, z: -0.044297338}
--- !u!1001 &3149963113818072173
PrefabInstance:
  m_ObjectHideFlags: 0
  serializedVersion: 2
  m_Modification:
    m_TransformParent: {fileID: 0}
    m_Modifications:
    - target: {fileID: 116970, guid: 38ade0ba7c293f14a9b1b610879e9390, type: 3}
      propertyPath: m_Name
      value: Tree 1 Variant
      objectReference: {fileID: 0}
    - target: {fileID: 116970, guid: 38ade0ba7c293f14a9b1b610879e9390, type: 3}
      propertyPath: m_TagString
      value: Hide
      objectReference: {fileID: 0}
    - target: {fileID: 116970, guid: 38ade0ba7c293f14a9b1b610879e9390, type: 3}
      propertyPath: m_StaticEditorFlags
      value: 8
      objectReference: {fileID: 0}
    - target: {fileID: 430824, guid: 38ade0ba7c293f14a9b1b610879e9390, type: 3}
      propertyPath: m_LocalPosition.x
      value: 4.010212
      objectReference: {fileID: 0}
    - target: {fileID: 430824, guid: 38ade0ba7c293f14a9b1b610879e9390, type: 3}
      propertyPath: m_LocalPosition.y
      value: -3.3184612
      objectReference: {fileID: 0}
    - target: {fileID: 430824, guid: 38ade0ba7c293f14a9b1b610879e9390, type: 3}
      propertyPath: m_LocalPosition.z
      value: -10.072709
      objectReference: {fileID: 0}
    - target: {fileID: 430824, guid: 38ade0ba7c293f14a9b1b610879e9390, type: 3}
      propertyPath: m_LocalRotation.x
      value: 0.0000000218557
      objectReference: {fileID: 0}
    - target: {fileID: 430824, guid: 38ade0ba7c293f14a9b1b610879e9390, type: 3}
      propertyPath: m_LocalRotation.y
      value: -0
      objectReference: {fileID: 0}
    - target: {fileID: 430824, guid: 38ade0ba7c293f14a9b1b610879e9390, type: 3}
      propertyPath: m_LocalRotation.z
      value: -0
      objectReference: {fileID: 0}
    - target: {fileID: 430824, guid: 38ade0ba7c293f14a9b1b610879e9390, type: 3}
      propertyPath: m_LocalRotation.w
      value: 1
      objectReference: {fileID: 0}
    - target: {fileID: 430824, guid: 38ade0ba7c293f14a9b1b610879e9390, type: 3}
      propertyPath: m_RootOrder
      value: 0
      objectReference: {fileID: 0}
    - target: {fileID: 430824, guid: 38ade0ba7c293f14a9b1b610879e9390, type: 3}
      propertyPath: m_LocalEulerAnglesHint.x
      value: 0
      objectReference: {fileID: 0}
    - target: {fileID: 430824, guid: 38ade0ba7c293f14a9b1b610879e9390, type: 3}
      propertyPath: m_LocalEulerAnglesHint.y
      value: 0
      objectReference: {fileID: 0}
    - target: {fileID: 430824, guid: 38ade0ba7c293f14a9b1b610879e9390, type: 3}
      propertyPath: m_LocalEulerAnglesHint.z
      value: 0
      objectReference: {fileID: 0}
    m_RemovedComponents: []
  m_SourcePrefab: {fileID: 100100000, guid: 38ade0ba7c293f14a9b1b610879e9390, type: 3}
--- !u!1 &3149963113817992327 stripped
GameObject:
  m_CorrespondingSourceObject: {fileID: 116970, guid: 38ade0ba7c293f14a9b1b610879e9390, type: 3}
  m_PrefabInstance: {fileID: 3149963113818072173}
  m_PrefabAsset: {fileID: 0}
